{
  "products": [
    {
      "id": 1,
      "name": "Caneta Bic Preta",
      "price": "5.89"
    },
    {
      "id": 2,
      "name": "Notebook Mac Pro",
      "price": "12000.00"
    },
    {
      "id": 3,
      "name": "Sansumg S10+ Ultra",
      "price": "5500.00"
    },
    {
      "name": "Lapis",
      "price": "3.50",
      "id": 4
    },
    {
      "name": "Novo",
      "price": "12.00",
      "id": 5
    }
  ]
}